graph {
	node [ExportValue="", ImportExportValue="", ImportValue="", cluster="-1", clustercolor="-1", fixedsize="true", fontname="Helvetica-Bold", fontsize="", label="\N", margin="0", pos="0,0", shape="plaintext", width="0.0001", height="0.0001"];
	edge [ExportFraction="", ImportExportFraction="", ImportFraction="", len="0", normalized_weight="", weight=""];
	"1" [ExportValue="10.4163", ImportExportValue="10.6752", ImportValue="10.3275", cluster="1", clustercolor="#FF4747", fontsize="14", label="Morocco", pos="445.122,441.97", width="1.0972", height="0.31944"];
	"41" [ExportValue="12.3479", ImportExportValue="12.5675", ImportValue="12.1662", cluster="3", clustercolor="#47A3FF", fontsize="14", label="UnitedStates", pos="724.797,775.238", width="1.4444", height="0.31944"];
	"51" [ExportValue="11.3766", ImportExportValue="11.6433", ImportValue="11.305", cluster="4", clustercolor="#FFFF91", fontsize="14", label="India", pos="916.591,601.623", width="0.75", height="0.31944"];
	"56" [ExportValue="11.0537", ImportExportValue="11.5446", ImportValue="11.3752", cluster="4", clustercolor="#FFFF91", fontsize="14", label="SaudiArabia", pos="959.261,723.512", width="1.40281", height="0.31944"];
	"57" [ExportValue="11.9106", ImportExportValue="12.1856", ImportValue="11.8569", cluster="1", clustercolor="#FF4747", fontsize="14", label="UnitedKingdom", pos="324.849,433.193", width="1.72219", height="0.31944"];
	"72" [ExportValue="12.0623", ImportExportValue="12.3895", ImportValue="12.1131", cluster="5", clustercolor="#4DDB4D", fontsize="14", label="Germany", pos="1149.41,117.261", width="1.1111", height="0.31944"];
	"94" [ExportValue="11.5999", ImportExportValue="11.8567", ImportValue="11.5063", cluster="1", clustercolor="#FF4747", fontsize="14", label="Spain", pos="179.828,270.933", width="0.777781", height="0.31944"];
	"106" [ExportValue="11.8107", ImportExportValue="12.1009", ImportValue="11.7886", cluster="2", clustercolor="#FFA347", fontsize="14", label="France", pos="497.864,294.673", width="0.902781", height="0.31944"];
	"122" [ExportValue="11.7212", ImportExportValue="12.0187", ImportValue="11.7142", cluster="5", clustercolor="#4DDB4D", fontsize="14", label="Italy", pos="959.159,218.073", width="0.75", height="0.31944"];
	"138" [ExportValue="11.6496", ImportExportValue="11.9767", ImportValue="11.7002", cluster="1", clustercolor="#FF4747", fontsize="14", label="Netherlands", pos="411.476,399.394", width="1.40281", height="0.31944"];
	"202" [ExportValue="11.9438", ImportExportValue="12.2931", ImportValue="12.0355", cluster="6", clustercolor="#FFA3D1", fontsize="14", label="China", pos="1350.33,566.312", width="0.791669", height="0.31944"];
	"204" [ExportValue="8.76237", ImportExportValue="8.88138", ImportValue="8.26101", cluster="1", clustercolor="#FF4747", fontsize="14", label="CapeVerde", pos="-7.67003,450.826", width="1.3056", height="0.31944"];
	"2" [ExportValue="9.68483", ImportExportValue="9.99437", ImportValue="9.70169", cluster="2", clustercolor="#FFA347", fontsize="14", label="Cameroon", pos="456.387,247.984", width="1.2361", height="0.31944"];
	"9" [ExportValue="11.5354", ImportExportValue="11.8438", ImportValue="11.5501", cluster="7", clustercolor="#C266E0", fontsize="14", label="Belgium", pos="1050.48,391.493", width="1.0278", height="0.31944"];
	"26" [ExportValue="11.5754", ImportExportValue="11.8792", ImportValue="11.581", cluster="6", clustercolor="#FFA3D1", fontsize="14", label="SouthKorea", pos="1624.45,651.17", width="1.3889", height="0.31944"];
	"29" [ExportValue="8.50599", ImportExportValue="8.6848", ImportValue="8.21306", cluster="3", clustercolor="#47A3FF", fontsize="14", label="CentralAfricanRepublic", pos="174.475,748.337", width="2.45831", height="0.31944"];
	"58" [ExportValue="10.398", ImportExportValue="10.8252", ImportValue="10.6218", cluster="2", clustercolor="#FFA347", fontsize="14", label="Nigeria", pos="808.538,432.955", width="0.902781", height="0.31944"];
	"194" [ExportValue="9.26044", ImportExportValue="9.74199", ImportValue="9.5681", cluster="3", clustercolor="#47A3FF", fontsize="14", label="Chad", pos="550.17,632.074", width="0.73611", height="0.31944"];
	"3" [ExportValue="11.1805", ImportExportValue="11.5159", ImportValue="11.2467", cluster="3", clustercolor="#47A3FF", fontsize="14", label="Ireland", pos="675.233,552.546", width="0.902781", height="0.31944"];
	"24" [ExportValue="10.7567", ImportExportValue="11.1131", ImportValue="10.8611", cluster="3", clustercolor="#47A3FF", fontsize="14", label="PuertoRico", pos="706.357,708.737", width="1.3056", height="0.31944"];
	"32" [ExportValue="9.01397", ImportExportValue="9.25018", ImportValue="8.87293", cluster="2", clustercolor="#FFA347", fontsize="14", label="Guinea", pos="750.155,316.132", width="0.916669", height="0.31944"];
	"192" [ExportValue="9.87077", ImportExportValue="10.107", ImportValue="9.72987", cluster="1", clustercolor="#FF4747", fontsize="14", label="Iceland", pos="225.389,330.459", width="0.93056", height="0.31944"];
	"4" [ExportValue="9.9207", ImportExportValue="10.2327", ImportValue="9.94243", cluster="4", clustercolor="#FFFF91", fontsize="14", label="Yemen", pos="1040.82,688.84", width="0.902781", height="0.31944"];
	"19" [ExportValue="11.811", ImportExportValue="12.1299", ImportValue="11.8461", cluster="6", clustercolor="#FFA3D1", fontsize="14", label="Japan", pos="1175.39,502.48", width="0.81944", height="0.31944"];
	"38" [ExportValue="11.0027", ImportExportValue="11.3978", ImportValue="11.174", cluster="4", clustercolor="#FFFF91", fontsize="14", label="UnitedArabEmirates", pos="875.852,692.546", width="2.15281", height="0.31944"];
	"79" [ExportValue="11.1584", ImportExportValue="11.4714", ImportValue="11.1821", cluster="6", clustercolor="#FFA3D1", fontsize="14", label="Thailand", pos="1324.9,737.451", width="1.0694", height="0.31944"];
	"108" [ExportValue="11.0973", ImportExportValue="11.4496", ImportValue="11.1945", cluster="3", clustercolor="#47A3FF", fontsize="14", label="Brazil", pos="363.37,803.014", width="0.777781", height="0.31944"];
	"165" [ExportValue="10.4271", ImportExportValue="10.9796", ImportValue="10.8369", cluster="6", clustercolor="#FFA3D1", fontsize="14", label="Kuwait", pos="1250.34,773.098", width="0.88889", height="0.31944"];
	"5" [ExportValue="9.68737", ImportExportValue="9.9606", ImportValue="9.62987", cluster="5", clustercolor="#4DDB4D", fontsize="14", label="Malta", pos="623.422,31.9367", width="0.75", height="0.31944"];
	"174" [ExportValue="11.5661", ImportExportValue="11.8798", ImportValue="11.5911", cluster="6", clustercolor="#FFA3D1", fontsize="14", label="HongKong", pos="1226.97,709.319", width="1.2639", height="0.31944"];
	"205" [ExportValue="11.4653", ImportExportValue="11.7964", ImportValue="11.5235", cluster="6", clustercolor="#FFA3D1", fontsize="14", label="Singapore", pos="1525.38,689.835", width="1.2361", height="0.31944"];
	"6" [ExportValue="9.47232", ImportExportValue="9.51028", ImportValue="8.43297", cluster="1", clustercolor="#FF4747", fontsize="14", label="Gibraltar", pos="74.3104,505.263", width="1.0694", height="0.31944"];
	"110" [ExportValue="9.5533", ImportExportValue="9.88626", ImportValue="9.61498", cluster="5", clustercolor="#4DDB4D", fontsize="14", label="Turkmenistan", pos="577.664,-27.9721", width="1.5694", height="0.31944"];
	"118" [ExportValue="11.2426", ImportExportValue="11.5758", ImportValue="11.3048", cluster="5", clustercolor="#4DDB4D", fontsize="14", label="Switzerland", pos="752.667,148.557", width="1.3611", height="0.31944"];
	"170" [ExportValue="11.3199", ImportExportValue="11.7343", ImportValue="11.5231", cluster="5", clustercolor="#4DDB4D", fontsize="14", label="Russia", pos="976.177,97.5521", width="0.88889", height="0.31944"];
	"7" [ExportValue="9.00071", ImportExportValue="9.32332", ImportValue="9.04284", cluster="6", clustercolor="#FFA3D1", fontsize="14", label="Laos", pos="1671.18,528.826", width="0.708331", height="0.31944"];
	"55" [ExportValue="10.6614", ImportExportValue="10.951", ImportValue="10.6383", cluster="6", clustercolor="#FFA3D1", fontsize="14", label="Vietnam", pos="1711.48,601.812", width="1.0139", height="0.31944"];
	"68" [ExportValue="11.341", ImportExportValue="11.6684", ImportValue="11.3922", cluster="6", clustercolor="#FFA3D1", fontsize="14", label="Taiwan", pos="1612.05,583.706", width="0.93056", height="0.31944"];
	"8" [ExportValue="9.76728", ImportExportValue="10.0651", ImportValue="9.76073", cluster="3", clustercolor="#47A3FF", fontsize="14", label="Uruguay", pos="247.643,848.129", width="1.0556", height="0.31944"];
	"39" [ExportValue="10.5778", ImportExportValue="11.0166", ImportValue="10.8199", cluster="3", clustercolor="#47A3FF", fontsize="14", label="Venezuela", pos="340.543,868.892", width="1.2361", height="0.31944"];
	"107" [ExportValue="10.5099", ImportExportValue="10.9143", ImportValue="10.6967", cluster="3", clustercolor="#47A3FF", fontsize="14", label="Argentina", pos="144.444,817.777", width="1.1667", height="0.31944"];
	"140" [ExportValue="11.4522", ImportExportValue="11.7459", ImportValue="11.4374", cluster="3", clustercolor="#47A3FF", fontsize="14", label="Mexico", pos="800.281,891.847", width="0.93056", height="0.31944"];
	"198" [ExportValue="9.51139", ImportExportValue="9.79939", ImportValue="9.48493", cluster="3", clustercolor="#47A3FF", fontsize="14", label="Paraguay", pos="474.68,598.013", width="1.1528", height="0.31944"];
	"17" [ExportValue="7.83378", ImportExportValue="7.86747", ImportValue="6.74036", cluster="2", clustercolor="#FFA347", fontsize="14", label="SaintPierreMiquelon", pos="839.874,301.605", width="2.1944", height="0.31944"];
	"21" [ExportValue="9.11564", ImportExportValue="9.33733", ImportValue="8.93916", cluster="6", clustercolor="#FFA3D1", fontsize="14", label="Benin", pos="1374.64,504.932", width="0.791669", height="0.31944"];
	"35" [ExportValue="8.89793", ImportExportValue="9.00441", ImportValue="8.34174", cluster="4", clustercolor="#FFFF91", fontsize="14", label="Rwanda", pos="1092.17,805.043", width="1", height="0.31944"];
	"37" [ExportValue="9.15586", ImportExportValue="9.29588", ImportValue="8.73615", cluster="6", clustercolor="#FFA3D1", fontsize="14", label="BurkinaFaso", pos="1475.52,495.612", width="1.47219", height="0.31944"];
	"40" [ExportValue="9.02925", ImportExportValue="9.23331", ImportValue="8.80724", cluster="2", clustercolor="#FFA347", fontsize="14", label="Niger", pos="449.23,192.771", width="0.75", height="0.31944"];
	"44" [ExportValue="9.525", ImportExportValue="9.99371", ImportValue="9.81336", cluster="6", clustercolor="#FFA3D1", fontsize="14", label="RepublicCongo", pos="1275.27,485.44", width="1.72219", height="0.31944"];
	"54" [ExportValue="8.55273", ImportExportValue="8.79238", ImportValue="8.41983", cluster="4", clustercolor="#FFFF91", fontsize="14", label="Gambia", pos="939.053,555.282", width="0.972219", height="0.31944"];
	"63" [ExportValue="10.7995", ImportExportValue="11.134", ImportValue="10.8641", cluster="5", clustercolor="#4DDB4D", fontsize="14", label="Luxembourg", pos="550.454,-91.349", width="1.47219", height="0.31944"];
	"67" [ExportValue="8.86425", ImportExportValue="9.01418", ImportValue="8.47945", cluster="7", clustercolor="#C266E0", fontsize="14", label="SierraLeone", pos="1224.71,336.104", width="1.41669", height="0.31944"];
	"69" [ExportValue="9.1366", ImportExportValue="9.32229", ImportValue="8.86375", cluster="2", clustercolor="#FFA347", fontsize="14", label="NewCaledonia", pos="601.013,409.866", width="1.6111", height="0.31944"];
	"71" [ExportValue="9.62118", ImportExportValue="9.85859", ImportValue="9.48299", cluster="5", clustercolor="#4DDB4D", fontsize="14", label="Macedonia", pos="413.954,0.246572", width="1.2917", height="0.31944"];
	"84" [ExportValue="11.2189", ImportExportValue="11.5581", ImportValue="11.292", cluster="1", clustercolor="#FF4747", fontsize="14", label="Sweden", pos="100.491,319.243", width="1", height="0.31944"];
	"85" [ExportValue="9.66356", ImportExportValue="9.93307", ImportValue="9.59805", cluster="1", clustercolor="#FF4747", fontsize="14", label="Mauritius", pos="151.103,501.609", width="1.1389", height="0.31944"];
	"95" [ExportValue="9.54673", ImportExportValue="9.78633", ImportValue="9.41372", cluster="7", clustercolor="#C266E0", fontsize="14", label="DemocraticRepublicCongo", pos="1128.34,362.926", width="2.8194", height="0.31944"];
	"96" [ExportValue="9.34317", ImportExportValue="9.55508", ImportValue="9.14178", cluster="5", clustercolor="#4DDB4D", fontsize="14", label="Armenia", pos="499.737,15.0032", width="1.0278", height="0.31944"];
	"101" [ExportValue="9.52181", ImportExportValue="9.68264", ImportValue="9.17329", cluster="4", clustercolor="#FFFF91", fontsize="14", label="Uganda", pos="848.058,548.032", width="0.972219", height="0.31944"];
	"113" [ExportValue="7.73116", ImportExportValue="7.88364", ImportValue="7.35506", cluster="6", clustercolor="#FFA3D1", fontsize="14", label="Kiribati", pos="1097.38,475.601", width="0.916669", height="0.31944"];
	"114" [ExportValue="9.05136", ImportExportValue="9.32228", ImportValue="8.98889", cluster="3", clustercolor="#47A3FF", fontsize="14", label="Suriname", pos="400.022,925.268", width="1.1528", height="0.31944"];
	"131" [ExportValue="10.7879", ImportExportValue="11.0941", ImportValue="10.7981", cluster="3", clustercolor="#47A3FF", fontsize="14", label="Israel", pos="875.203,936.001", width="0.76389", height="0.31944"];
	"151" [ExportValue="9.44778", ImportExportValue="9.99374", ImportValue="9.84837", cluster="3", clustercolor="#47A3FF", fontsize="14", label="Gabon", pos="167.029,679.36", width="0.875", height="0.31944"];
	"154" [ExportValue="9.80427", ImportExportValue="10.0282", ImportValue="9.63334", cluster="6", clustercolor="#FFA3D1", fontsize="14", label="Ghana", pos="1435.4,543.511", width="0.86111", height="0.31944"];
	"157" [ExportValue="9.60607", ImportExportValue="9.81296", ImportValue="9.39157", cluster="4", clustercolor="#FFFF91", fontsize="14", label="Senegal", pos="921.887,506.936", width="1.0139", height="0.31944"];
	"162" [ExportValue="9.75673", ImportExportValue="10.0739", ImportValue="9.78835", cluster="3", clustercolor="#47A3FF", fontsize="14", label="Panama", pos="572.129,579.296", width="1.0139", height="0.31944"];
	"164" [ExportValue="8.56407", ImportExportValue="8.65579", ImportValue="7.93539", cluster="5", clustercolor="#4DDB4D", fontsize="14", label="Burundi", pos="856.56,8.027", width="1.0139", height="0.31944"];
	"166" [ExportValue="9.43785", ImportExportValue="9.76581", ImportValue="9.49014", cluster="7", clustercolor="#C266E0", fontsize="14", label="Mozambique", pos="1154.63,292.703", width="1.47219", height="0.31944"];
	"168" [ExportValue="10.3988", ImportExportValue="10.6483", ImportValue="10.2889", cluster="5", clustercolor="#4DDB4D", fontsize="14", label="Bulgaria", pos="675.241,-22.1305", width="1.0417", height="0.31944"];
	"169" [ExportValue="9.2212", ImportExportValue="9.50063", ImportValue="9.17687", cluster="6", clustercolor="#FFA3D1", fontsize="14", label="Mauritania", pos="1091.18,578.159", width="1.25", height="0.31944"];
	"177" [ExportValue="10.0848", ImportExportValue="10.3236", ImportValue="9.94989", cluster="4", clustercolor="#FFFF91", fontsize="14", label="SriLanka", pos="1099.43,867.8", width="1.0972", height="0.31944"];
	"190" [ExportValue="9.09831", ImportExportValue="9.26932", ImportValue="8.78185", cluster="6", clustercolor="#FFA3D1", fontsize="14", label="Lesotho", pos="1341.25,444.019", width="1.0278", height="0.31944"];
	"199" [ExportValue="10.1032", ImportExportValue="10.3659", ImportValue="10.0228", cluster="3", clustercolor="#47A3FF", fontsize="14", label="DominicanRepublic", pos="653.766,501.374", width="2.1111", height="0.31944"];
	"206" [ExportValue="7.96197", ImportExportValue="8.0588", ImportValue="7.35952", cluster="1", clustercolor="#FF4747", fontsize="14", label="SaoTomePrincipe", pos="75.0135,431.759", width="1.95831", height="0.31944"];
	"10" [ExportValue="9.33907", ImportExportValue="9.64804", ImportValue="9.3548", cluster="6", clustercolor="#FFA3D1", fontsize="14", label="Mongolia", pos="1266.67,535.923", width="1.125", height="0.31944"];
	"104" [ExportValue="11.6315", ImportExportValue="11.9533", ImportValue="11.672", cluster="3", clustercolor="#47A3FF", fontsize="14", label="Canada", pos="450.113,711.204", width="0.972219", height="0.31944"];
	"11" [ExportValue="9.31803", ImportExportValue="9.58076", ImportValue="9.23771", cluster="3", clustercolor="#47A3FF", fontsize="14", label="Barbados", pos="450.112,776.954", width="1.1806", height="0.31944"];
	"16" [ExportValue="9.85031", ImportExportValue="10.2916", ImportValue="10.0963", cluster="3", clustercolor="#47A3FF", fontsize="14", label="TrinidadTobago", pos="899.885,857.966", width="1.79169", height="0.31944"];
	"92" [ExportValue="8.51078", ImportExportValue="8.73659", ImportValue="8.34452", cluster="3", clustercolor="#47A3FF", fontsize="14", label="SaintKittsNevis", pos="575.231,533.199", width="1.6944", height="0.31944"];
	"93" [ExportValue="8.83384", ImportExportValue="9.09977", ImportValue="8.76055", cluster="3", clustercolor="#47A3FF", fontsize="14", label="SaintLucia", pos="255.299,704.712", width="1.25", height="0.31944"];
	"115" [ExportValue="8.48382", ImportExportValue="8.71686", ImportValue="8.33519", cluster="5", clustercolor="#4DDB4D", fontsize="14", label="SaintVincentGrenadines", pos="800.029,202.188", width="2.5694", height="0.31944"];
	"191" [ExportValue="8.83194", ImportExportValue="9.10371", ImportValue="8.7713", cluster="1", clustercolor="#FF4747", fontsize="14", label="AntiguaBarbuda", pos="250.395,474.54", width="1.8056", height="0.31944"];
	"197" [ExportValue="9.77799", ImportExportValue="10.0048", ImportValue="9.61408", cluster="3", clustercolor="#47A3FF", fontsize="14", label="Jamaica", pos="675.767,831.484", width="1.0278", height="0.31944"];
	"12" [ExportValue="9.88381", ImportExportValue="10.1906", ImportValue="9.89519", cluster="6", clustercolor="#FFA3D1", fontsize="14", label="Cuba", pos="1156.69,616.982", width="0.73611", height="0.31944"];
	"109" [ExportValue="9.02078", ImportExportValue="9.26971", ImportValue="8.90946", cluster="3", clustercolor="#47A3FF", fontsize="14", label="Guyana", pos="369.334,672.084", width="0.98611", height="0.31944"];
	"152" [ExportValue="8.91422", ImportExportValue="9.19086", ImportValue="8.86399", cluster="3", clustercolor="#47A3FF", fontsize="14", label="Belize", pos="625.06,724.166", width="0.81944", height="0.31944"];
	"13" [ExportValue="9.55402", ImportExportValue="10.101", ImportValue="9.95599", cluster="3", clustercolor="#47A3FF", fontsize="14", label="EquatorialGuinea", pos="624.973,782.871", width="1.90281", height="0.31944"];
	"33" [ExportValue="9.8756", ImportExportValue="10.2033", ImportValue="9.92739", cluster="2", clustercolor="#FFA347", fontsize="14", label="IvoryCoast", pos="523.283,345.92", width="1.2778", height="0.31944"];
	"178" [ExportValue="10.8735", ImportExportValue="11.1268", ImportValue="10.7721", cluster="1", clustercolor="#FF4747", fontsize="14", label="Portugal", pos="-74.2558,389.497", width="1.0556", height="0.31944"];
	"14" [ExportValue="10.9363", ImportExportValue="11.2397", ImportValue="10.9411", cluster="5", clustercolor="#4DDB4D", fontsize="14", label="Hungary", pos="899.426,62.9252", width="1.0556", height="0.31944"];
	"30" [ExportValue="11.2085", ImportExportValue="11.5303", ImportValue="11.2492", cluster="5", clustercolor="#4DDB4D", fontsize="14", label="Austria", pos="1175.78,53.8094", width="0.916669", height="0.31944"];
	"78" [ExportValue="9.80661", ImportExportValue="9.97499", ImportValue="9.48201", cluster="5", clustercolor="#4DDB4D", fontsize="14", label="BosniaHerzegovina", pos="775.424,-17.2251", width="2.1111", height="0.31944"];
	"103" [ExportValue="10.6675", ImportExportValue="10.9574", ImportValue="10.6448", cluster="5", clustercolor="#4DDB4D", fontsize="14", label="Slovakia", pos="1250.56,94.9864", width="1.0556", height="0.31944"];
	"124" [ExportValue="9.70392", ImportExportValue="10.0554", ImportValue="9.79951", cluster="5", clustercolor="#4DDB4D", fontsize="14", label="Uzbekistan", pos="800.32,92.7644", width="1.2917", height="0.31944"];
	"139" [ExportValue="11.1452", ImportExportValue="11.4425", ImportValue="11.1376", cluster="5", clustercolor="#4DDB4D", fontsize="14", label="Poland", pos="1050.62,140.701", width="0.902781", height="0.31944"];
	"179" [ExportValue="10.7435", ImportExportValue="10.9857", ImportValue="10.6166", cluster="5", clustercolor="#4DDB4D", fontsize="14", label="Romania", pos="980.53,24.4525", width="1.0694", height="0.31944"];
	"15" [ExportValue="9.56079", ImportExportValue="10.0647", ImportValue="9.90146", cluster="6", clustercolor="#FFA3D1", fontsize="14", label="Brunei", pos="1663.62,447.67", width="0.875", height="0.31944"];
	"121" [ExportValue="11.1679", ImportExportValue="11.5174", ImportValue="11.2601", cluster="6", clustercolor="#FFA3D1", fontsize="14", label="Malaysia", pos="1524.34,622.039", width="1.0833", height="0.31944"];
	"125" [ExportValue="11.2321", ImportExportValue="11.525", ImportValue="11.2158", cluster="6", clustercolor="#FFA3D1", fontsize="14", label="Australia", pos="1193.12,452.699", width="1.0833", height="0.31944"];
	"135" [ExportValue="10.9777", ImportExportValue="11.3171", ImportValue="11.0513", cluster="6", clustercolor="#FFA3D1", fontsize="14", label="Indonesia", pos="1424.27,691.644", width="1.1806", height="0.31944"];
	"117" [ExportValue="8.51667", ImportExportValue="8.70072", ImportValue="8.23911", cluster="3", clustercolor="#47A3FF", fontsize="14", label="Grenada", pos="600.705,871.278", width="1.0694", height="0.31944"];
	"141" [ExportValue="8.28388", ImportExportValue="8.52078", ImportValue="8.14447", cluster="6", clustercolor="#FFA3D1", fontsize="14", label="Dominica", pos="1725.06,687.843", width="1.1389", height="0.31944"];
	"142" [ExportValue="10.5023", ImportExportValue="10.7876", ImportValue="10.4702", cluster="3", clustercolor="#47A3FF", fontsize="14", label="Colombia", pos="774.586,833.925", width="1.1528", height="0.31944"];
	"18" [ExportValue="7.46507", ImportExportValue="7.51046", ImportValue="6.50716", cluster="5", clustercolor="#4DDB4D", fontsize="14", label="Tuvalu", pos="950.134,-41.3091", width="0.902781", height="0.31944"];
	"119" [ExportValue="9.33983", ImportExportValue="9.5948", ImportValue="9.24224", cluster="6", clustercolor="#FFA3D1", fontsize="14", label="Fiji", pos="1750.1,491.115", width="0.666669", height="0.31944"];
	"159" [ExportValue="10.52", ImportExportValue="10.801", ImportValue="10.479", cluster="6", clustercolor="#FFA3D1", fontsize="14", label="NewZealand", pos="1525,768.462", width="1.40281", height="0.31944"];
	"22" [ExportValue="8.37047", ImportExportValue="8.56362", ImportValue="8.11873", cluster="6", clustercolor="#FFA3D1", fontsize="14", label="Samoa", pos="1801.12,562.243", width="0.902781", height="0.31944"];
	"27" [ExportValue="10.7523", ImportExportValue="11.0454", ImportValue="10.7362", cluster="6", clustercolor="#FFA3D1", fontsize="14", label="Philippines", pos="1324.28,677.797", width="1.3056", height="0.31944"];
	"31" [ExportValue="9.02994", ImportExportValue="9.28994", ImportValue="8.94359", cluster="7", clustercolor="#C266E0", fontsize="14", label="Zimbabwe", pos="1249.87,287.155", width="1.2083", height="0.31944"];
	"34" [ExportValue="8.5054", ImportExportValue="8.74259", ImportValue="8.3667", cluster="6", clustercolor="#FFA3D1", fontsize="14", label="Liberia", pos="1524.82,547.485", width="0.902781", height="0.31944"];
	"36" [ExportValue="9.18164", ImportExportValue="9.42866", ImportValue="9.06593", cluster="2", clustercolor="#FFA347", fontsize="14", label="FrenchPolynesia", pos="875.037,398.222", width="1.8611", height="0.31944"];
	"43" [ExportValue="9.63699", ImportExportValue="9.80224", ImportValue="9.30258", cluster="4", clustercolor="#FFFF91", fontsize="14", label="Ethiopia", pos="998.518,640.737", width="1.0278", height="0.31944"];
	"50" [ExportValue="8.74449", ImportExportValue="8.97738", ImportValue="8.59548", cluster="1", clustercolor="#FF4747", fontsize="14", label="Greenland", pos="173.795,439.886", width="1.2361", height="0.31944"];
	"65" [ExportValue="10.2698", ImportExportValue="10.638", ImportValue="10.3951", cluster="3", clustercolor="#47A3FF", fontsize="14", label="Peru", pos="574.583,943.226", width="0.69444", height="0.31944"];
	"66" [ExportValue="8.32602", ImportExportValue="8.5642", ImportValue="8.18966", cluster="6", clustercolor="#FFA3D1", fontsize="14", label="Vanuatu", pos="1325.69,625.177", width="1.0278", height="0.31944"];
	"70" [ExportValue="10.0314", ImportExportValue="10.4212", ImportValue="10.1939", cluster="4", clustercolor="#FFFF91", fontsize="14", label="Bahrain", pos="1053.45,747.942", width="0.98611", height="0.31944"];
	"74" [ExportValue="8.39089", ImportExportValue="8.69178", ImportValue="8.39061", cluster="6", clustercolor="#FFA3D1", fontsize="14", label="SolomonIslands", pos="1349.75,811.417", width="1.79169", height="0.31944"];
	"75" [ExportValue="9.43704", ImportExportValue="9.71632", ImportValue="9.3924", cluster="6", clustercolor="#FFA3D1", fontsize="14", label="PapuaNewGuinea", pos="1807.87,642.589", width="1.9444", height="0.31944"];
	"77" [ExportValue="9.91876", ImportExportValue="10.2514", ImportValue="9.97978", cluster="6", clustercolor="#FFA3D1", fontsize="14", label="Sudan", pos="1226.48,653.589", width="0.86111", height="0.31944"];
	"87" [ExportValue="9.5193", ImportExportValue="9.55078", ImportValue="8.39533", cluster="2", clustercolor="#FFA347", fontsize="14", label="Reunion", pos="703.304,345.694", width="1.0278", height="0.31944"];
	"89" [ExportValue="9.4665", ImportExportValue="9.78473", ImportValue="9.50024", cluster="3", clustercolor="#47A3FF", fontsize="14", label="Bolivia", pos="699.82,894.642", width="0.88889", height="0.31944"];
	"97" [ExportValue="9.95225", ImportExportValue="10.1613", ImportValue="9.74345", cluster="4", clustercolor="#FFFF91", fontsize="14", label="Kenya", pos="803.029,652.9", width="0.847219", height="0.31944"];
	"98" [ExportValue="10.6532", ImportExportValue="11.0463", ImportValue="10.8212", cluster="3", clustercolor="#47A3FF", fontsize="14", label="Chile", pos="669.63,958.179", width="0.75", height="0.31944"];
	"112" [ExportValue="9.42042", ImportExportValue="9.707", ImportValue="9.39102", cluster="7", clustercolor="#C266E0", fontsize="14", label="Swaziland", pos="1024.96,346.245", width="1.2083", height="0.31944"];
	"127" [ExportValue="10.1991", ImportExportValue="10.6984", ImportValue="10.5329", cluster="6", clustercolor="#FFA3D1", fontsize="14", label="Qatar", pos="1523.81,433.289", width="0.76389", height="0.31944"];
	"128" [ExportValue="8.15919", ImportExportValue="8.28654", ImportValue="7.69163", cluster="6", clustercolor="#FFA3D1", fontsize="14", label="Tonga", pos="1250.42,592.812", width="0.86111", height="0.31944"];
	"130" [ExportValue="10.2142", ImportExportValue="10.5942", ImportValue="10.36", cluster="4", clustercolor="#FFFF91", fontsize="14", label="Oman", pos="1075.77,933.672", width="0.80556", height="0.31944"];
	"132" [ExportValue="8.83022", ImportExportValue="9.15424", ImportValue="8.87504", cluster="1", clustercolor="#FF4747", fontsize="14", label="Seychelles", pos="213.992,199.379", width="1.2778", height="0.31944"];
	"136" [ExportValue="10.8871", ImportExportValue="11.1688", ImportValue="10.8475", cluster="7", clustercolor="#C266E0", fontsize="14", label="SouthAfrica", pos="1104.04,324.808", width="1.3611", height="0.31944"];
	"146" [ExportValue="8.04876", ImportExportValue="8.38464", ImportValue="8.11586", cluster="6", clustercolor="#FFA3D1", fontsize="14", label="CookIslands", pos="1424.22,759.816", width="1.4444", height="0.31944"];
	"160" [ExportValue="10.7395", ImportExportValue="11.1335", ImportValue="10.9089", cluster="5", clustercolor="#4DDB4D", fontsize="14", label="Iran", pos="874.204,128.514", width="0.666669", height="0.31944"];
	"161" [ExportValue="8.98249", ImportExportValue="9.23289", ImportValue="8.87455", cluster="6", clustercolor="#FFA3D1", fontsize="14", label="Maldives", pos="1424.29,596.087", width="1.0972", height="0.31944"];
	"173" [ExportValue="9.24699", ImportExportValue="9.2819", ImportValue="8.16967", cluster="2", clustercolor="#FFA347", fontsize="14", label="Guadeloupe", pos="875.448,346.378", width="1.40281", height="0.31944"];
	"183" [ExportValue="10.56", ImportExportValue="10.7743", ImportValue="10.365", cluster="4", clustercolor="#FFFF91", fontsize="14", label="Pakistan", pos="1150.51,982.095", width="1.0694", height="0.31944"];
	"185" [ExportValue="7.65321", ImportExportValue="7.80618", ImportValue="7.27875", cluster="1", clustercolor="#FF4747", fontsize="14", label="SaintHelena", pos="275.776,276.119", width="1.375", height="0.31944"];
	"186" [ExportValue="10.0989", ImportExportValue="10.3723", ImportValue="10.0419", cluster="3", clustercolor="#47A3FF", fontsize="14", label="CostaRica", pos="725.746,1017.45", width="1.2083", height="0.31944"];
	"189" [ExportValue="9.5558", ImportExportValue="9.80756", ImportValue="9.45095", cluster="3", clustercolor="#47A3FF", fontsize="14", label="Bahamas", pos="266.077,779.258", width="1.1389", height="0.31944"];
	"201" [ExportValue="9.9179", ImportExportValue="10.3299", ImportValue="10.1172", cluster="6", clustercolor="#FFA3D1", fontsize="14", label="Macau", pos="1574.88,490.9", width="0.875", height="0.31944"];
	"20" [ExportValue="10.1708", ImportExportValue="10.4517", ImportValue="10.1296", cluster="5", clustercolor="#4DDB4D", fontsize="14", label="Estonia", pos="618.083,94.0495", width="0.958331", height="0.31944"];
	"23" [ExportValue="10.3253", ImportExportValue="10.5982", ImportValue="10.267", cluster="5", clustercolor="#4DDB4D", fontsize="14", label="Lithuania", pos="1049.43,191.704", width="1.125", height="0.31944"];
	"53" [ExportValue="10.9016", ImportExportValue="11.2381", ImportValue="10.9699", cluster="5", clustercolor="#4DDB4D", fontsize="14", label="Finland", pos="425.098,61.095", width="0.94444", height="0.31944"];
	"123" [ExportValue="10.1121", ImportExportValue="10.3391", ImportValue="9.94881", cluster="5", clustercolor="#4DDB4D", fontsize="14", label="Latvia", pos="645.907,-87.8226", width="0.81944", height="0.31944"];
	"155" [ExportValue="9.10859", ImportExportValue="9.3378", ImportValue="8.95067", cluster="6", clustercolor="#FFA3D1", fontsize="14", label="Togo", pos="1174.53,553.387", width="0.73611", height="0.31944"];
	"61" [ExportValue="10.3751", ImportExportValue="10.6614", ImportValue="10.3451", cluster="1", clustercolor="#FF4747", fontsize="14", label="Belarus", pos="24.1997,373.64", width="0.98611", height="0.31944"];
	"133" [ExportValue="11.1359", ImportExportValue="11.4535", ImportValue="11.1684", cluster="1", clustercolor="#FF4747", fontsize="14", label="Denmark", pos="144.449,375.805", width="1.1111", height="0.31944"];
	"25" [ExportValue="10.6402", ImportExportValue="10.9346", ImportValue="10.6269", cluster="3", clustercolor="#47A3FF", fontsize="14", label="Iraq", pos="387.587,611.369", width="0.666669", height="0.31944"];
	"90" [ExportValue="10.1344", ImportExportValue="10.3224", ImportValue="9.86817", cluster="3", clustercolor="#47A3FF", fontsize="14", label="Jordan", pos="474.584,975.824", width="0.916669", height="0.31944"];
	"175" [ExportValue="11.1294", ImportExportValue="11.3744", ImportValue="11.0089", cluster="5", clustercolor="#4DDB4D", fontsize="14", label="Turkey", pos="719.985,32.8545", width="0.916669", height="0.31944"];
	"196" [ExportValue="10.0665", ImportExportValue="10.3855", ImportValue="10.1016", cluster="5", clustercolor="#4DDB4D", fontsize="14", label="Syria", pos="850.168,-67.7157", width="0.75", height="0.31944"];
	"83" [ExportValue="7.60061", ImportExportValue="7.75309", ImportValue="7.2245", cluster="6", clustercolor="#FFA3D1", fontsize="14", label="Nauru", pos="1625.09,727.685", width="0.81944", height="0.31944"];
	"86" [ExportValue="8.20238", ImportExportValue="8.43635", ImportValue="8.05599", cluster="4", clustercolor="#FFFF91", fontsize="14", label="GuineaBissau", pos="899.723,647.786", width="1.58331", height="0.31944"];
	"102" [ExportValue="10.3451", ImportExportValue="10.7575", ImportValue="10.545", cluster="6", clustercolor="#FFA3D1", fontsize="14", label="Angola", pos="1079.44,525.352", width="0.902781", height="0.31944"];
	"134" [ExportValue="10.1875", ImportExportValue="10.7581", ImportValue="10.6222", cluster="5", clustercolor="#4DDB4D", fontsize="14", label="Libya", pos="1141.66,193.136", width="0.76389", height="0.31944"];
	"137" [ExportValue="10.0966", ImportExportValue="10.3091", ImportValue="9.89674", cluster="3", clustercolor="#47A3FF", fontsize="14", label="Guatemala", pos="771.581,956.613", width="1.2639", height="0.31944"];
	"28" [ExportValue="9.70379", ImportExportValue="9.97732", ImportValue="9.64695", cluster="3", clustercolor="#47A3FF", fontsize="14", label="Cambodia", pos="649.821,607.984", width="1.2083", height="0.31944"];
	"100" [ExportValue="10.3589", ImportExportValue="10.6282", ImportValue="10.2928", cluster="5", clustercolor="#4DDB4D", fontsize="14", label="Croatia", pos="1075.96,-8.92862", width="0.93056", height="0.31944"];
	"120" [ExportValue="9.22331", ImportExportValue="9.55655", ImportValue="9.28551", cluster="5", clustercolor="#4DDB4D", fontsize="14", label="Liechtenstein", pos="1177.26,-13.7112", width="1.52781", height="0.31944"];
	"149" [ExportValue="8.694", ImportExportValue="8.74393", ImportValue="7.77986", cluster="5", clustercolor="#4DDB4D", fontsize="14", label="Eritrea", pos="524.755,76.5778", width="0.875", height="0.31944"];
	"188" [ExportValue="11.0056", ImportExportValue="11.3139", ImportValue="11.02", cluster="5", clustercolor="#4DDB4D", fontsize="14", label="CzechRepublic", pos="1074.21,65.8629", width="1.6806", height="0.31944"];
	"209" [ExportValue="10.4044", ImportExportValue="10.7047", ImportValue="10.4029", cluster="5", clustercolor="#4DDB4D", fontsize="14", label="Slovenia", pos="734.386,-83.3497", width="1.0694", height="0.31944"];
	"42" [ExportValue="9.09047", ImportExportValue="9.24859", ImportValue="8.73314", cluster="7", clustercolor="#C266E0", fontsize="14", label="Malawi", pos="1339.99,262.103", width="0.902781", height="0.31944"];
	"129" [ExportValue="9.46707", ImportExportValue="9.69823", ImportValue="9.3139", cluster="7", clustercolor="#C266E0", fontsize="14", label="Zambia", pos="1326.03,320.831", width="0.93056", height="0.31944"];
	"208" [ExportValue="10.7268", ImportExportValue="11.0151", ImportValue="10.701", cluster="5", clustercolor="#4DDB4D", fontsize="14", label="Ukraine", pos="1048.8,242.11", width="0.972219", height="0.31944"];
	"99" [ExportValue="9.31517", ImportExportValue="9.57677", ImportValue="9.23237", cluster="6", clustercolor="#FFA3D1", fontsize="14", label="Mali", pos="1425.16,443.569", width="0.666669", height="0.31944"];
	"163" [ExportValue="10.9607", ImportExportValue="11.3862", ImportValue="11.1818", cluster="1", clustercolor="#FF4747", fontsize="14", label="Norway", pos="4.89086,300.074", width="0.958331", height="0.31944"];
	"62" [ExportValue="9.62623", ImportExportValue="9.86064", ImportValue="9.48089", cluster="1", clustercolor="#FF4747", fontsize="14", label="Tanzania", pos="456.54,490.208", width="1.1111", height="0.31944"];
	"82" [ExportValue="9.88387", ImportExportValue="10.045", ImportValue="9.53635", cluster="4", clustercolor="#FFFF91", fontsize="14", label="Lebanon", pos="1053.02,1004.62", width="1.0833", height="0.31944"];
	"172" [ExportValue="8.08793", ImportExportValue="8.23153", ImportValue="7.68107", cluster="2", clustercolor="#FFA347", fontsize="14", label="Comoros", pos="547.724,210.707", width="1.125", height="0.31944"];
	"46" [ExportValue="9.50141", ImportExportValue="9.68027", ImportValue="9.20864", cluster="3", clustercolor="#47A3FF", fontsize="14", label="Nicaragua", pos="549.229,816.135", width="1.2083", height="0.31944"];
	"111" [ExportValue="9.36305", ImportExportValue="9.43316", ImportValue="8.6066", cluster="2", clustercolor="#FFA347", fontsize="14", label="Martinique", pos="699.562,409.207", width="1.2639", height="0.31944"];
	"153" [ExportValue="9.9284", ImportExportValue="10.125", ImportValue="9.68622", cluster="3", clustercolor="#47A3FF", fontsize="14", label="ElSalvador", pos="274.623,639.938", width="1.2778", height="0.31944"];
	"171" [ExportValue="9.49515", ImportExportValue="9.79315", ImportValue="9.48908", cluster="3", clustercolor="#47A3FF", fontsize="14", label="NetherlandsAntilles", pos="866.585,806.003", width="2.1111", height="0.31944"];
	"200" [ExportValue="9.25311", ImportExportValue="9.51785", ImportValue="9.17722", cluster="3", clustercolor="#47A3FF", fontsize="14", label="Aruba", pos="438.94,849.979", width="0.81944", height="0.31944"];
	"45" [ExportValue="10.2411", ImportExportValue="10.4726", ImportValue="10.0888", cluster="3", clustercolor="#47A3FF", fontsize="14", label="Bangladesh", pos="349.993,739.186", width="1.3889", height="0.31944"];
	"47" [ExportValue="9.29919", ImportExportValue="9.42318", ImportValue="8.81824", cluster="3", clustercolor="#47A3FF", fontsize="14", label="Haiti", pos="539.758,723.213", width="0.75", height="0.31944"];
	"60" [ExportValue="10.4255", ImportExportValue="10.9265", ImportValue="10.7619", cluster="3", clustercolor="#47A3FF", fontsize="14", label="Algeria", pos="467.89,655.746", width="0.902781", height="0.31944"];
	"64" [ExportValue="9.79106", ImportExportValue="9.999", ImportValue="9.57932", cluster="3", clustercolor="#47A3FF", fontsize="14", label="Honduras", pos="634.271,665.987", width="1.1806", height="0.31944"];
	"88" [ExportValue="9.82772", ImportExportValue="9.97577", ImportValue="9.43645", cluster="4", clustercolor="#FFFF91", fontsize="14", label="Afghanistan", pos="825.082,600.836", width="1.3889", height="0.31944"];
	"105" [ExportValue="9.27507", ImportExportValue="9.63739", ImportValue="9.39006", cluster="5", clustercolor="#4DDB4D", fontsize="14", label="Bermuda", pos="1351,103.897", width="1.1111", height="0.31944"];
	"116" [ExportValue="10.9137", ImportExportValue="11.1478", ImportValue="10.7675", cluster="5", clustercolor="#4DDB4D", fontsize="14", label="Greece", pos="886.457,184.453", width="0.93056", height="0.31944"];
	"126" [ExportValue="9.34727", ImportExportValue="9.57202", ImportValue="9.1784", cluster="2", clustercolor="#FFA347", fontsize="14", label="Madagascar", pos="775.448,375.707", width="1.4306", height="0.31944"];
	"143" [ExportValue="8.79588", ImportExportValue="8.88224", ImportValue="8.1383", cluster="2", clustercolor="#FFA347", fontsize="14", label="FrenchGuiana", pos="600.633,315.796", width="1.6111", height="0.31944"];
	"145" [ExportValue="9.91021", ImportExportValue="10.3441", ImportValue="10.1447", cluster="5", clustercolor="#4DDB4D", fontsize="14", label="Azerbaijan", pos="1398.55,47.2736", width="1.25", height="0.31944"];
	"147" [ExportValue="10.1277", ImportExportValue="10.4363", ImportValue="10.1427", cluster="3", clustercolor="#47A3FF", fontsize="14", label="Ecuador", pos="499.204,900.599", width="1.0556", height="0.31944"];
	"156" [ExportValue="9.64394", ImportExportValue="9.84209", ImportValue="9.406", cluster="5", clustercolor="#4DDB4D", fontsize="14", label="Georgia", pos="1296.3,32.8712", width="1", height="0.31944"];
	"176" [ExportValue="7.95424", ImportExportValue="8.33244", ImportValue="8.09691", cluster="1", clustercolor="#FF4747", fontsize="14", label="FalklandIslands", pos="325.163,365.557", width="1.75", height="0.31944"];
	"180" [ExportValue="9.44574", ImportExportValue="9.73548", ImportValue="9.42286", cluster="7", clustercolor="#C266E0", fontsize="14", label="Namibia", pos="1424.43,292.435", width="1", height="0.31944"];
	"181" [ExportValue="10.5454", ImportExportValue="10.8179", ImportValue="10.4863", cluster="5", clustercolor="#4DDB4D", fontsize="14", label="Egypt", pos="324.954,-2.91978", width="0.791669", height="0.31944"];
	"184" [ExportValue="7.78654", ImportExportValue="7.78688", ImportValue="4.67624", cluster="2", clustercolor="#FFA347", fontsize="14", label="WallisFutuna", pos="625.364,362.732", width="1.47219", height="0.31944"];
	"203" [ExportValue="9.03513", ImportExportValue="9.2919", ImportValue="8.94157", cluster="1", clustercolor="#FF4747", fontsize="14", label="Andorra", pos="373.057,486.852", width="1.0278", height="0.31944"];
	"207" [ExportValue="9.48039", ImportExportValue="9.65408", ImportValue="9.17213", cluster="4", clustercolor="#FFFF91", fontsize="14", label="Nepal", pos="1170.96,915.732", width="0.777781", height="0.31944"];
	"48" [ExportValue="8.87564", ImportExportValue="9.14145", ImportValue="8.80209", cluster="1", clustercolor="#FF4747", fontsize="14", label="FaroeIslands", pos="104.715,221.262", width="1.4861", height="0.31944"];
	"150" [ExportValue="9.99175", ImportExportValue="10.2784", ImportValue="9.96256", cluster="1", clustercolor="#FF4747", fontsize="14", label="Cyprus", pos="225.834,397.884", width="0.94444", height="0.31944"];
	"81" [ExportValue="9.50074", ImportExportValue="9.67539", ImportValue="9.19537", cluster="5", clustercolor="#4DDB4D", fontsize="14", label="Moldova", pos="675.294,141.972", width="1.0694", height="0.31944"];
	"73" [ExportValue="10.2055", ImportExportValue="10.4982", ImportValue="10.1887", cluster="2", clustercolor="#FFA347", fontsize="14", label="Tunisia", pos="574.984,260.154", width="0.94444", height="0.31944"];
	"91" [ExportValue="9.10931", ImportExportValue="9.33431", ImportValue="8.94104", cluster="5", clustercolor="#4DDB4D", fontsize="14", label="Montenegro", pos="1224.32,157.283", width="1.40281", height="0.31944"];
	"144" [ExportValue="10.5142", ImportExportValue="10.8703", ImportValue="10.6181", cluster="5", clustercolor="#4DDB4D", fontsize="14", label="Kazakhstan", pos="975.477,153.462", width="1.3611", height="0.31944"];
	"158" [ExportValue="9.63567", ImportExportValue="9.81206", ImportValue="9.33554", cluster="5", clustercolor="#4DDB4D", fontsize="14", label="Albania", pos="704.939,90.2799", width="0.94444", height="0.31944"];
	"193" [ExportValue="9.30682", ImportExportValue="9.56661", ImportValue="9.22", cluster="5", clustercolor="#4DDB4D", fontsize="14", label="Tajikistan", pos="449.242,-56.762", width="1.1667", height="0.31944"];
	"182" [ExportValue="8.53275", ImportExportValue="8.54095", ImportValue="6.81291", cluster="2", clustercolor="#FFA347", fontsize="14", label="Mayotte", pos="672.466,283.286", width="1", height="0.31944"];
	"1" -- "94" [ExportFraction="0.212", ImportExportFraction="0.349", ImportFraction="0.137", len="0.52252", normalized_weight="0.22250", weight="0.349"];
	"1" -- "106" [ExportFraction="0.19", ImportExportFraction="0.353", ImportFraction="0.163", len="0.51921", normalized_weight="0.22505", weight="0.353"];
	"2" -- "106" [ExportFraction="0.118", ImportExportFraction="0.351", ImportFraction="0.233", len="0.52086", normalized_weight="0.22378", weight="0.351"];
	"3" -- "24" [ImportExportFraction="0.237", ImportFraction="0.237", len="0.62711", normalized_weight="0.15110", weight="0.237"];
	"3" -- "41" [ExportFraction="0.178", ImportExportFraction="0.291", ImportFraction="0.113", len="0.57353", normalized_weight="0.18552", weight="0.291"];
	"4" -- "202" [ExportFraction="0.218", ImportExportFraction="0.338", ImportFraction="0.12", len="0.53174", normalized_weight="0.21549", weight="0.338"];
	"5" -- "57" [ExportFraction="0.1", ImportExportFraction="0.25", ImportFraction="0.15", len="0.6136", normalized_weight="0.15938", weight="0.25"];
	"5" -- "72" [ExportFraction="0.137", ImportExportFraction="0.225", ImportFraction="0.088", len="0.63997", normalized_weight="0.14345", weight="0.225"];
	"5" -- "122" [ExportFraction="0.04", ImportExportFraction="0.3", ImportFraction="0.26", len="0.56521", normalized_weight="0.19126", weight="0.3"];
	"6" -- "57" [ExportFraction="0.308", ImportExportFraction="0.398", ImportFraction="0.09", len="0.48364", normalized_weight="0.25374", weight="0.398"];
	"6" -- "94" [ExportFraction="0.227", ImportExportFraction="0.461", ImportFraction="0.234", len="0.43828", normalized_weight="0.29391", weight="0.461"];
	"7" -- "79" [ExportFraction="0.357", ImportExportFraction="1.057", ImportFraction="0.7", len="0.15089", normalized_weight="0.67388", weight="1.057"];
	"8" -- "107" [ExportFraction="0.071", ImportExportFraction="0.281", ImportFraction="0.21", len="0.58297", normalized_weight="0.17915", weight="0.281"];
	"8" -- "108" [ExportFraction="0.156", ImportExportFraction="0.333", ImportFraction="0.177", len="0.536", normalized_weight="0.21230", weight="0.333"];
	"9" -- "17" [ExportFraction="0.218", ImportExportFraction="0.259", ImportFraction="0.041", len="0.60448", normalized_weight="0.16512", weight="0.259"];
	"9" -- "63" [ExportFraction="0.101", ImportExportFraction="0.375", ImportFraction="0.274", len="0.50146", normalized_weight="0.23908", weight="0.375"];
	"9" -- "67" [ExportFraction="0.499", ImportExportFraction="0.499", len="0.41305", normalized_weight="0.31813", weight="0.499"];
	"9" -- "95" [ExportFraction="0.241", ImportExportFraction="0.35", ImportFraction="0.109", len="0.52169", normalized_weight="0.22314", weight="0.35"];
	"9" -- "138" [ExportFraction="0.135", ImportExportFraction="0.228", ImportFraction="0.093", len="0.63672", normalized_weight="0.14536", weight="0.228"];
	"9" -- "206" [ExportFraction="0.243", ImportExportFraction="0.243", len="0.62082", normalized_weight="0.15492", weight="0.243"];
	"10" -- "170" [ImportExportFraction="0.296", ImportFraction="0.296", len="0.56889", normalized_weight="0.18871", weight="0.296"];
	"10" -- "202" [ExportFraction="0.727", ImportExportFraction="1.043", ImportFraction="0.316", len="0.15586", normalized_weight="0.66495", weight="1.043"];
	"11" -- "16" [ExportFraction="0.191", ImportExportFraction="0.459", ImportFraction="0.268", len="0.43965", normalized_weight="0.29263", weight="0.459"];
	"11" -- "41" [ExportFraction="0.115", ImportExportFraction="0.411", ImportFraction="0.296", len="0.47389", normalized_weight="0.26203", weight="0.411"];
	"12" -- "39" [ImportExportFraction="0.28", ImportFraction="0.28", len="0.58393", normalized_weight="0.17851", weight="0.28"];
	"12" -- "104" [ExportFraction="0.28", ImportExportFraction="0.335", ImportFraction="0.055", len="0.53429", normalized_weight="0.21358", weight="0.335"];
	"12" -- "202" [ExportFraction="0.279", ImportExportFraction="0.411", ImportFraction="0.132", len="0.47389", normalized_weight="0.26203", weight="0.411"];
	"13" -- "41" [ExportFraction="0.199", ImportExportFraction="0.381", ImportFraction="0.182", len="0.49674", normalized_weight="0.24290", weight="0.381"];
	"13" -- "94" [ExportFraction="0.134", ImportExportFraction="0.261", ImportFraction="0.127", len="0.60248", normalized_weight="0.16640", weight="0.261"];
	"13" -- "202" [ExportFraction="0.224", ImportExportFraction="0.295", ImportFraction="0.071", len="0.56982", normalized_weight="0.18807", weight="0.295"];
	"14" -- "72" [ExportFraction="0.281", ImportExportFraction="0.547", ImportFraction="0.266", len="0.38315", normalized_weight="0.34873", weight="0.547"];
	"15" -- "19" [ExportFraction="0.31", ImportExportFraction="0.368", ImportFraction="0.058", len="0.50703", normalized_weight="0.23461", weight="0.368"];
	"15" -- "135" [ExportFraction="0.237", ImportExportFraction="0.237", len="0.62711", normalized_weight="0.15110", weight="0.237"];
	"15" -- "205" [ImportExportFraction="0.33", ImportFraction="0.33", len="0.53858", normalized_weight="0.21039", weight="0.33"];
	"16" -- "41" [ExportFraction="0.58", ImportExportFraction="0.863", ImportFraction="0.283", len="0.22535", normalized_weight="0.55020", weight="0.863"];
	"16" -- "93" [ExportFraction="0.041", ImportExportFraction="0.243", ImportFraction="0.202", len="0.62082", normalized_weight="0.15492", weight="0.243"];
	"16" -- "109" [ExportFraction="0.051", ImportExportFraction="0.306", ImportFraction="0.255", len="0.55975", normalized_weight="0.19509", weight="0.306"];
	"16" -- "117" [ImportExportFraction="0.358", ImportFraction="0.358", len="0.51511", normalized_weight="0.22824", weight="0.358"];
	"17" -- "94" [ExportFraction="0.336", ImportExportFraction="0.336", len="0.53344", normalized_weight="0.21421", weight="0.336"];
	"17" -- "104" [ImportExportFraction="0.318", ImportFraction="0.318", len="0.54904", normalized_weight="0.20274", weight="0.318"];
	"17" -- "106" [ExportFraction="0.094", ImportExportFraction="0.607", ImportFraction="0.513", len="0.34844", normalized_weight="0.38699", weight="0.607"];
	"18" -- "72" [ExportFraction="0.605", ImportExportFraction="0.605", len="0.34956", normalized_weight="0.38571", weight="0.605"];
	"18" -- "119" [ExportFraction="0.069", ImportExportFraction="0.53", ImportFraction="0.461", len="0.3935", normalized_weight="0.33790", weight="0.53"];
	"19" -- "26" [ExportFraction="0.068", ImportExportFraction="0.232", ImportFraction="0.164", len="0.63242", normalized_weight="0.14791", weight="0.232"];
	"19" -- "27" [ExportFraction="0.118", ImportExportFraction="0.266", ImportFraction="0.148", len="0.59752", normalized_weight="0.16959", weight="0.266"];
	"19" -- "38" [ExportFraction="0.234", ImportExportFraction="0.296", ImportFraction="0.062", len="0.56889", normalized_weight="0.18871", weight="0.296"];
	"19" -- "56" [ExportFraction="0.161", ImportExportFraction="0.242", ImportFraction="0.081", len="0.62186", normalized_weight="0.15428", weight="0.242"];
	"19" -- "68" [ExportFraction="0.064", ImportExportFraction="0.285", ImportFraction="0.221", len="0.57917", normalized_weight="0.18170", weight="0.285"];
	"19" -- "77" [ExportFraction="0.19", ImportExportFraction="0.232", ImportFraction="0.042", len="0.63242", normalized_weight="0.14791", weight="0.232"];
	"19" -- "79" [ExportFraction="0.119", ImportExportFraction="0.322", ImportFraction="0.203", len="0.54552", normalized_weight="0.20529", weight="0.322"];
	"19" -- "113" [ExportFraction="0.143", ImportExportFraction="0.324", ImportFraction="0.181", len="0.54378", normalized_weight="0.20656", weight="0.324"];
	"19" -- "127" [ExportFraction="0.501", ImportExportFraction="0.596", ImportFraction="0.095", len="0.3546", normalized_weight="0.37997", weight="0.596"];
	"19" -- "130" [ExportFraction="0.122", ImportExportFraction="0.302", ImportFraction="0.18", len="0.56339", normalized_weight="0.19254", weight="0.302"];
	"19" -- "146" [ExportFraction="0.27", ImportExportFraction="0.27", len="0.59359", normalized_weight="0.17214", weight="0.27"];
	"19" -- "162" [ImportExportFraction="0.294", ImportFraction="0.294", len="0.57074", normalized_weight="0.18744", weight="0.294"];
	"19" -- "165" [ExportFraction="0.195", ImportExportFraction="0.282", ImportFraction="0.087", len="0.58202", normalized_weight="0.17979", weight="0.282"];
	"19" -- "202" [ExportFraction="0.153", ImportExportFraction="0.358", ImportFraction="0.205", len="0.51511", normalized_weight="0.22824", weight="0.358"];
	"20" -- "53" [ExportFraction="0.179", ImportExportFraction="0.338", ImportFraction="0.159", len="0.53174", normalized_weight="0.21549", weight="0.338"];
	"20" -- "84" [ExportFraction="0.132", ImportExportFraction="0.233", ImportFraction="0.101", len="0.63136", normalized_weight="0.14855", weight="0.233"];
	"21" -- "202" [ExportFraction="0.231", ImportExportFraction="0.682", ImportFraction="0.451", len="0.30863", normalized_weight="0.43480", weight="0.682"];
	"22" -- "125" [ExportFraction="0.455", ImportExportFraction="0.54", ImportFraction="0.085", len="0.38738", normalized_weight="0.34427", weight="0.54"];
	"23" -- "72" [ExportFraction="0.105", ImportExportFraction="0.254", ImportFraction="0.149", len="0.60952", normalized_weight="0.16194", weight="0.254"];
	"23" -- "170" [ExportFraction="0.15", ImportExportFraction="0.331", ImportFraction="0.181", len="0.53772", normalized_weight="0.21103", weight="0.331"];
	"24" -- "41" [ExportFraction="0.903", ImportExportFraction="1.453", ImportFraction="0.55", len="0.02979", normalized_weight="0.92635", weight="1.453"];
	"25" -- "41" [ExportFraction="0.4", ImportExportFraction="0.508", ImportFraction="0.108", len="0.40729", normalized_weight="0.32387", weight="0.508"];
	"25" -- "196" [ExportFraction="0.296", ImportExportFraction="0.296", len="0.56889", normalized_weight="0.18871", weight="0.296"];
	"26" -- "34" [ExportFraction="0.048", ImportExportFraction="0.43", ImportFraction="0.382", len="0.46001", normalized_weight="0.27414", weight="0.43"];
	"26" -- "41" [ExportFraction="0.123", ImportExportFraction="0.228", ImportFraction="0.105", len="0.63672", normalized_weight="0.14536", weight="0.228"];
	"26" -- "83" [ExportFraction="0.076", ImportExportFraction="0.514", ImportFraction="0.438", len="0.40348", normalized_weight="0.32770", weight="0.514"];
	"26" -- "202" [ExportFraction="0.257", ImportExportFraction="0.424", ImportFraction="0.167", len="0.46435", normalized_weight="0.27032", weight="0.424"];
	"27" -- "41" [ExportFraction="0.134", ImportExportFraction="0.254", ImportFraction="0.12", len="0.60952", normalized_weight="0.16194", weight="0.254"];
	"27" -- "202" [ExportFraction="0.294", ImportExportFraction="0.405", ImportFraction="0.111", len="0.47836", normalized_weight="0.25820", weight="0.405"];
	"28" -- "41" [ExportFraction="0.591", ImportExportFraction="0.591", len="0.35743", normalized_weight="0.37679", weight="0.591"];
	"28" -- "79" [ImportExportFraction="0.273", ImportFraction="0.273", len="0.59067", normalized_weight="0.17405", weight="0.273"];
	"29" -- "104" [ExportFraction="0.389", ImportExportFraction="0.389", len="0.49053", normalized_weight="0.24800", weight="0.389"];
	"31" -- "129" [ImportExportFraction="0.284", ImportFraction="0.284", len="0.58012", normalized_weight="0.18106", weight="0.284"];
	"31" -- "136" [ExportFraction="0.164", ImportExportFraction="0.555", ImportFraction="0.391", len="0.37836", normalized_weight="0.35383", weight="0.555"];
	"33" -- "58" [ExportFraction="0.091", ImportExportFraction="0.396", ImportFraction="0.305", len="0.48516", normalized_weight="0.25247", weight="0.396"];
	"33" -- "106" [ExportFraction="0.073", ImportExportFraction="0.237", ImportFraction="0.164", len="0.62711", normalized_weight="0.15110", weight="0.237"];
	"36" -- "106" [ExportFraction="0.463", ImportExportFraction="0.99", ImportFraction="0.527", len="0.17519", normalized_weight="0.63116", weight="0.99"];
	"37" -- "202" [ExportFraction="0.333", ImportExportFraction="0.333", len="0.536", normalized_weight="0.21230", weight="0.333"];
	"38" -- "130" [ExportFraction="0.065", ImportExportFraction="0.262", ImportFraction="0.197", len="0.60148", normalized_weight="0.16704", weight="0.262"];
	"39" -- "41" [ExportFraction="0.441", ImportExportFraction="0.711", ImportFraction="0.27", len="0.29417", normalized_weight="0.45329", weight="0.711"];
	"40" -- "58" [ExportFraction="0.233", ImportExportFraction="0.316", ImportFraction="0.083", len="0.55081", normalized_weight="0.20146", weight="0.316"];
	"40" -- "106" [ExportFraction="0.503", ImportExportFraction="0.657", ImportFraction="0.154", len="0.3215", normalized_weight="0.41886", weight="0.657"];
	"41" -- "44" [ExportFraction="0.344", ImportExportFraction="0.394", ImportFraction="0.05", len="0.48669", normalized_weight="0.25119", weight="0.394"];
	"41" -- "45" [ExportFraction="0.239", ImportExportFraction="0.239", len="0.625", normalized_weight="0.15237", weight="0.239"];
	"41" -- "46" [ExportFraction="0.607", ImportExportFraction="0.801", ImportFraction="0.194", len="0.25212", normalized_weight="0.51067", weight="0.801"];
	"41" -- "47" [ExportFraction="0.743", ImportExportFraction="1.157", ImportFraction="0.414", len="0.11698", normalized_weight="0.73763", weight="1.157"];
	"41" -- "51" [ExportFraction="0.151", ImportExportFraction="0.229", ImportFraction="0.078", len="0.63564", normalized_weight="0.14600", weight="0.229"];
	"41" -- "55" [ExportFraction="0.225", ImportExportFraction="0.225", len="0.63997", normalized_weight="0.14345", weight="0.225"];
	"41" -- "56" [ExportFraction="0.168", ImportExportFraction="0.294", ImportFraction="0.126", len="0.57074", normalized_weight="0.18744", weight="0.294"];
	"41" -- "58" [ExportFraction="0.512", ImportExportFraction="0.593", ImportFraction="0.081", len="0.3563", normalized_weight="0.37806", weight="0.593"];
	"41" -- "60" [ExportFraction="0.294", ImportExportFraction="0.35", ImportFraction="0.056", len="0.52169", normalized_weight="0.22314", weight="0.35"];
	"41" -- "64" [ExportFraction="0.688", ImportExportFraction="1.209", ImportFraction="0.521", len="0.10034", normalized_weight="0.77079", weight="1.209"];
	"41" -- "65" [ExportFraction="0.188", ImportExportFraction="0.389", ImportFraction="0.201", len="0.49053", normalized_weight="0.24800", weight="0.389"];
	"41" -- "67" [ExportFraction="0.207", ImportExportFraction="0.296", ImportFraction="0.089", len="0.56889", normalized_weight="0.18871", weight="0.296"];
	"41" -- "68" [ExportFraction="0.128", ImportExportFraction="0.258", ImportFraction="0.13", len="0.60548", normalized_weight="0.16449", weight="0.258"];
	"41" -- "88" [ExportFraction="0.212", ImportExportFraction="0.323", ImportFraction="0.111", len="0.54465", normalized_weight="0.20593", weight="0.323"];
	"41" -- "90" [ExportFraction="0.224", ImportExportFraction="0.271", ImportFraction="0.047", len="0.59262", normalized_weight="0.17277", weight="0.271"];
	"41" -- "92" [ExportFraction="0.571", ImportExportFraction="1.05", ImportFraction="0.479", len="0.15337", normalized_weight="0.66942", weight="1.05"];
	"41" -- "93" [ExportFraction="0.246", ImportExportFraction="0.497", ImportFraction="0.251", len="0.41435", normalized_weight="0.31686", weight="0.497"];
	"41" -- "98" [ExportFraction="0.125", ImportExportFraction="0.292", ImportFraction="0.167", len="0.5726", normalized_weight="0.18616", weight="0.292"];
	"41" -- "102" [ExportFraction="0.348", ImportExportFraction="0.447", ImportFraction="0.099", len="0.44796", normalized_weight="0.28498", weight="0.447"];
	"41" -- "104" [ExportFraction="0.214", ImportExportFraction="0.371", ImportFraction="0.157", len="0.50463", normalized_weight="0.23653", weight="0.371"];
	"41" -- "105" [ImportExportFraction="0.26", ImportFraction="0.26", len="0.60348", normalized_weight="0.16576", weight="0.26"];
	"41" -- "108" [ExportFraction="0.142", ImportExportFraction="0.342", ImportFraction="0.2", len="0.52836", normalized_weight="0.21804", weight="0.342"];
	"41" -- "109" [ExportFraction="0.164", ImportExportFraction="0.364", ImportFraction="0.2", len="0.51024", normalized_weight="0.23206", weight="0.364"];
	"41" -- "113" [ExportFraction="0.228", ImportExportFraction="0.228", len="0.63672", normalized_weight="0.14536", weight="0.228"];
	"41" -- "114" [ExportFraction="0.085", ImportExportFraction="0.358", ImportFraction="0.273", len="0.51511", normalized_weight="0.22824", weight="0.358"];
	"41" -- "117" [ExportFraction="0.162", ImportExportFraction="0.391", ImportFraction="0.229", len="0.48899", normalized_weight="0.24928", weight="0.391"];
	"41" -- "121" [ExportFraction="0.156", ImportExportFraction="0.264", ImportFraction="0.108", len="0.5995", normalized_weight="0.16831", weight="0.264"];
	"41" -- "126" [ExportFraction="0.267", ImportExportFraction="0.267", len="0.59653", normalized_weight="0.17022", weight="0.267"];
	"41" -- "128" [ExportFraction="0.344", ImportExportFraction="0.436", ImportFraction="0.092", len="0.45572", normalized_weight="0.27797", weight="0.436"];
	"41" -- "131" [ExportFraction="0.349", ImportExportFraction="0.488", ImportFraction="0.139", len="0.42021", normalized_weight="0.31112", weight="0.488"];
	"41" -- "137" [ExportFraction="0.396", ImportExportFraction="0.722", ImportFraction="0.326", len="0.28881", normalized_weight="0.46030", weight="0.722"];
	"41" -- "140" [ExportFraction="0.117", ImportExportFraction="0.223", ImportFraction="0.106", len="0.64215", normalized_weight="0.14217", weight="0.223"];
	"41" -- "141" [ImportExportFraction="0.234", ImportFraction="0.234", len="0.63029", normalized_weight="0.14918", weight="0.234"];
	"41" -- "142" [ExportFraction="0.305", ImportExportFraction="0.576", ImportFraction="0.271", len="0.36603", normalized_weight="0.36722", weight="0.576"];
	"41" -- "147" [ExportFraction="0.42", ImportExportFraction="0.636", ImportFraction="0.216", len="0.33261", normalized_weight="0.40548", weight="0.636"];
	"41" -- "151" [ExportFraction="0.315", ImportExportFraction="0.508", ImportFraction="0.193", len="0.40729", normalized_weight="0.32387", weight="0.508"];
	"41" -- "152" [ExportFraction="0.28", ImportExportFraction="0.586", ImportFraction="0.306", len="0.36028", normalized_weight="0.37360", weight="0.586"];
	"41" -- "153" [ExportFraction="0.472", ImportExportFraction="0.781", ImportFraction="0.309", len="0.26112", normalized_weight="0.49792", weight="0.781"];
	"41" -- "162" [ExportFraction="0.211", ImportExportFraction="0.339", ImportFraction="0.128", len="0.5309", normalized_weight="0.21613", weight="0.339"];
	"41" -- "171" [ExportFraction="0.182", ImportExportFraction="0.305", ImportFraction="0.123", len="0.56066", normalized_weight="0.19445", weight="0.305"];
	"41" -- "177" [ExportFraction="0.231", ImportExportFraction="0.231", len="0.63349", normalized_weight="0.14727", weight="0.231"];
	"41" -- "183" [ExportFraction="0.177", ImportExportFraction="0.234", ImportFraction="0.057", len="0.63029", normalized_weight="0.14918", weight="0.234"];
	"41" -- "186" [ExportFraction="0.249", ImportExportFraction="0.65", ImportFraction="0.401", len="0.32517", normalized_weight="0.41440", weight="0.65"];
	"41" -- "189" [ExportFraction="0.21", ImportExportFraction="0.44", ImportFraction="0.23", len="0.45288", normalized_weight="0.28052", weight="0.44"];
	"41" -- "190" [ExportFraction="0.798", ImportExportFraction="0.798", len="0.25346", normalized_weight="0.50876", weight="0.798"];
	"41" -- "194" [ExportFraction="0.872", ImportExportFraction="0.978", ImportFraction="0.106", len="0.17969", normalized_weight="0.62351", weight="0.978"];
	"41" -- "197" [ExportFraction="0.346", ImportExportFraction="0.732", ImportFraction="0.386", len="0.28399", normalized_weight="0.46668", weight="0.732"];
	"41" -- "198" [ImportExportFraction="0.224", ImportFraction="0.224", len="0.64106", normalized_weight="0.14281", weight="0.224"];
	"41" -- "199" [ExportFraction="0.669", ImportExportFraction="1.114", ImportFraction="0.445", len="0.13124", normalized_weight="0.71022", weight="1.114"];
	"41" -- "200" [ExportFraction="0.113", ImportExportFraction="0.659", ImportFraction="0.546", len="0.32046", normalized_weight="0.42014", weight="0.659"];
	"41" -- "201" [ExportFraction="0.4", ImportExportFraction="0.451", ImportFraction="0.051", len="0.44518", normalized_weight="0.28753", weight="0.451"];
	"41" -- "202" [ExportFraction="0.056", ImportExportFraction="0.225", ImportFraction="0.169", len="0.63997", normalized_weight="0.14345", weight="0.225"];
	"42" -- "136" [ExportFraction="0.124", ImportExportFraction="0.473", ImportFraction="0.349", len="0.43016", normalized_weight="0.30156", weight="0.473"];
	"43" -- "56" [ExportFraction="0.071", ImportExportFraction="0.24", ImportFraction="0.169", len="0.62396", normalized_weight="0.15301", weight="0.24"];
	"43" -- "202" [ExportFraction="0.064", ImportExportFraction="0.228", ImportFraction="0.164", len="0.63672", normalized_weight="0.14536", weight="0.228"];
	"44" -- "202" [ExportFraction="0.312", ImportExportFraction="0.458", ImportFraction="0.146", len="0.44034", normalized_weight="0.29199", weight="0.458"];
	"48" -- "57" [ExportFraction="0.232", ImportExportFraction="0.232", len="0.63242", normalized_weight="0.14791", weight="0.232"];
	"48" -- "133" [ExportFraction="0.298", ImportExportFraction="0.827", ImportFraction="0.529", len="0.24069", normalized_weight="0.52725", weight="0.827"];
	"48" -- "163" [ExportFraction="0.134", ImportExportFraction="0.355", ImportFraction="0.221", len="0.51756", normalized_weight="0.22633", weight="0.355"];
	"50" -- "133" [ExportFraction="0.63", ImportExportFraction="1.31", ImportFraction="0.68", len="0.06973", normalized_weight="0.83518", weight="1.31"];
	"51" -- "54" [ExportFraction="0.365", ImportExportFraction="0.365", len="0.50944", normalized_weight="0.23270", weight="0.365"];
	"51" -- "86" [ExportFraction="0.765", ImportExportFraction="0.765", len="0.26845", normalized_weight="0.48772", weight="0.765"];
	"51" -- "88" [ExportFraction="0.236", ImportExportFraction="0.286", ImportFraction="0.05", len="0.57823", normalized_weight="0.18234", weight="0.286"];
	"51" -- "177" [ExportFraction="0.101", ImportExportFraction="0.321", ImportFraction="0.22", len="0.5464", normalized_weight="0.20465", weight="0.321"];
	"51" -- "207" [ExportFraction="0.703", ImportExportFraction="1.272", ImportFraction="0.569", len="0.081", normalized_weight="0.81095", weight="1.272"];
	"53" -- "72" [ExportFraction="0.109", ImportExportFraction="0.268", ImportFraction="0.159", len="0.59555", normalized_weight="0.17086", weight="0.268"];
	"53" -- "170" [ExportFraction="0.103", ImportExportFraction="0.24", ImportFraction="0.137", len="0.62396", normalized_weight="0.15301", weight="0.24"];
	"54" -- "202" [ExportFraction="0.15", ImportExportFraction="0.393", ImportFraction="0.243", len="0.48745", normalized_weight="0.25055", weight="0.393"];
	"55" -- "202" [ExportFraction="0.062", ImportExportFraction="0.262", ImportFraction="0.2", len="0.60148", normalized_weight="0.16704", weight="0.262"];
	"56" -- "70" [ExportFraction="0.035", ImportExportFraction="0.408", ImportFraction="0.373", len="0.47612", normalized_weight="0.26012", weight="0.408"];
	"56" -- "90" [ExportFraction="0.075", ImportExportFraction="0.285", ImportFraction="0.21", len="0.57917", normalized_weight="0.18170", weight="0.285"];
	"57" -- "72" [ExportFraction="0.11", ImportExportFraction="0.247", ImportFraction="0.137", len="0.61668", normalized_weight="0.15747", weight="0.247"];
	"57" -- "85" [ExportFraction="0.284", ImportExportFraction="0.284", len="0.58012", normalized_weight="0.18106", weight="0.284"];
	"57" -- "93" [ExportFraction="0.211", ImportExportFraction="0.26", ImportFraction="0.049", len="0.60348", normalized_weight="0.16576", weight="0.26"];
	"57" -- "132" [ExportFraction="0.251", ImportExportFraction="0.251", len="0.61257", normalized_weight="0.16002", weight="0.251"];
	"57" -- "150" [ExportFraction="0.143", ImportExportFraction="0.239", ImportFraction="0.096", len="0.625", normalized_weight="0.15237", weight="0.239"];
	"57" -- "176" [ExportFraction="0.045", ImportExportFraction="0.77", ImportFraction="0.725", len="0.26615", normalized_weight="0.49091", weight="0.77"];
	"57" -- "185" [ExportFraction="0.084", ImportExportFraction="0.619", ImportFraction="0.535", len="0.34182", normalized_weight="0.39464", weight="0.619"];
	"60" -- "106" [ExportFraction="0.074", ImportExportFraction="0.265", ImportFraction="0.191", len="0.59851", normalized_weight="0.16895", weight="0.265"];
	"60" -- "122" [ExportFraction="0.138", ImportExportFraction="0.225", ImportFraction="0.087", len="0.63997", normalized_weight="0.14345", weight="0.225"];
	"62" -- "185" [ExportFraction="0.377", ImportExportFraction="0.462", ImportFraction="0.085", len="0.4376", normalized_weight="0.29454", weight="0.462"];
	"63" -- "72" [ExportFraction="0.211", ImportExportFraction="0.449", ImportFraction="0.238", len="0.44657", normalized_weight="0.28626", weight="0.449"];
	"63" -- "106" [ExportFraction="0.163", ImportExportFraction="0.255", ImportFraction="0.092", len="0.60851", normalized_weight="0.16257", weight="0.255"];
	"65" -- "202" [ExportFraction="0.118", ImportExportFraction="0.225", ImportFraction="0.107", len="0.63997", normalized_weight="0.14345", weight="0.225"];
	"66" -- "79" [ExportFraction="0.594", ImportExportFraction="0.594", len="0.35573", normalized_weight="0.37870", weight="0.594"];
	"68" -- "190" [ImportExportFraction="0.247", ImportFraction="0.247", len="0.61668", normalized_weight="0.15747", weight="0.247"];
	"68" -- "202" [ExportFraction="0.323", ImportExportFraction="0.432", ImportFraction="0.109", len="0.45858", normalized_weight="0.27542", weight="0.432"];
	"69" -- "106" [ExportFraction="0.121", ImportExportFraction="0.499", ImportFraction="0.378", len="0.41305", normalized_weight="0.31813", weight="0.499"];
	"71" -- "72" [ExportFraction="0.147", ImportExportFraction="0.262", ImportFraction="0.115", len="0.60148", normalized_weight="0.16704", weight="0.262"];
	"72" -- "78" [ExportFraction="0.134", ImportExportFraction="0.265", ImportFraction="0.131", len="0.59851", normalized_weight="0.16895", weight="0.265"];
	"72" -- "84" [ExportFraction="0.104", ImportExportFraction="0.288", ImportFraction="0.184", len="0.57634", normalized_weight="0.18361", weight="0.288"];
	"72" -- "94" [ExportFraction="0.108", ImportExportFraction="0.265", ImportFraction="0.157", len="0.59851", normalized_weight="0.16895", weight="0.265"];
	"72" -- "96" [ExportFraction="0.191", ImportExportFraction="0.249", ImportFraction="0.058", len="0.61462", normalized_weight="0.15875", weight="0.249"];
	"72" -- "100" [ExportFraction="0.102", ImportExportFraction="0.246", ImportFraction="0.144", len="0.61771", normalized_weight="0.15683", weight="0.246"];
	"72" -- "103" [ExportFraction="0.214", ImportExportFraction="0.435", ImportFraction="0.221", len="0.45643", normalized_weight="0.27733", weight="0.435"];
	"72" -- "105" [ExportFraction="0.11", ImportExportFraction="0.329", ImportFraction="0.219", len="0.53944", normalized_weight="0.20975", weight="0.329"];
	"72" -- "116" [ExportFraction="0.114", ImportExportFraction="0.243", ImportFraction="0.129", len="0.62082", normalized_weight="0.15492", weight="0.243"];
	"72" -- "118" [ExportFraction="0.219", ImportExportFraction="0.502", ImportFraction="0.283", len="0.41112", normalized_weight="0.32004", weight="0.502"];
	"72" -- "120" [ExportFraction="0.243", ImportExportFraction="0.243", len="0.62082", normalized_weight="0.15492", weight="0.243"];
	"72" -- "122" [ExportFraction="0.129", ImportExportFraction="0.298", ImportFraction="0.169", len="0.56705", normalized_weight="0.18999", weight="0.298"];
	"72" -- "123" [ExportFraction="0.083", ImportExportFraction="0.233", ImportFraction="0.15", len="0.63136", normalized_weight="0.14855", weight="0.233"];
	"72" -- "133" [ExportFraction="0.173", ImportExportFraction="0.389", ImportFraction="0.216", len="0.49053", normalized_weight="0.24800", weight="0.389"];
	"72" -- "138" [ExportFraction="0.244", ImportExportFraction="0.42", ImportFraction="0.176", len="0.46726", normalized_weight="0.26777", weight="0.42"];
	"72" -- "139" [ExportFraction="0.259", ImportExportFraction="0.548", ImportFraction="0.289", len="0.38254", normalized_weight="0.34937", weight="0.548"];
	"72" -- "163" [ExportFraction="0.127", ImportExportFraction="0.263", ImportFraction="0.136", len="0.60049", normalized_weight="0.16767", weight="0.263"];
	"72" -- "164" [ExportFraction="0.253", ImportExportFraction="0.302", ImportFraction="0.049", len="0.56339", normalized_weight="0.19254", weight="0.302"];
	"72" -- "168" [ExportFraction="0.103", ImportExportFraction="0.226", ImportFraction="0.123", len="0.63889", normalized_weight="0.14408", weight="0.226"];
	"72" -- "170" [ExportFraction="0.095", ImportExportFraction="0.258", ImportFraction="0.163", len="0.60548", normalized_weight="0.16449", weight="0.258"];
	"72" -- "178" [ExportFraction="0.129", ImportExportFraction="0.258", ImportFraction="0.129", len="0.60548", normalized_weight="0.16449", weight="0.258"];
	"72" -- "179" [ExportFraction="0.169", ImportExportFraction="0.341", ImportFraction="0.172", len="0.52921", normalized_weight="0.21740", weight="0.341"];
	"72" -- "188" [ExportFraction="0.309", ImportExportFraction="0.629", ImportFraction="0.32", len="0.33638", normalized_weight="0.40101", weight="0.629"];
	"72" -- "191" [ExportFraction="0.207", ImportExportFraction="0.34", ImportFraction="0.133", len="0.53005", normalized_weight="0.21676", weight="0.34"];
	"72" -- "192" [ExportFraction="0.133", ImportExportFraction="0.255", ImportFraction="0.122", len="0.60851", normalized_weight="0.16257", weight="0.255"];
	"72" -- "209" [ExportFraction="0.188", ImportExportFraction="0.369", ImportFraction="0.181", len="0.50623", normalized_weight="0.23525", weight="0.369"];
	"73" -- "106" [ExportFraction="0.307", ImportExportFraction="0.548", ImportFraction="0.241", len="0.38254", normalized_weight="0.34937", weight="0.548"];
	"73" -- "122" [ExportFraction="0.206", ImportExportFraction="0.428", ImportFraction="0.222", len="0.46145", normalized_weight="0.27287", weight="0.428"];
	"74" -- "125" [ImportExportFraction="0.265", ImportFraction="0.265", len="0.59851", normalized_weight="0.16895", weight="0.265"];
	"74" -- "202" [ExportFraction="0.507", ImportExportFraction="0.507", len="0.40792", normalized_weight="0.32323", weight="0.507"];
	"74" -- "205" [ImportExportFraction="0.286", ImportFraction="0.286", len="0.57823", normalized_weight="0.18234", weight="0.286"];
	"75" -- "125" [ExportFraction="0.258", ImportExportFraction="0.769", ImportFraction="0.511", len="0.26661", normalized_weight="0.49027", weight="0.769"];
	"77" -- "202" [ExportFraction="0.678", ImportExportFraction="0.957", ImportFraction="0.279", len="0.18768", normalized_weight="0.61013", weight="0.957"];
	"78" -- "122" [ExportFraction="0.161", ImportExportFraction="0.265", ImportFraction="0.104", len="0.59851", normalized_weight="0.16895", weight="0.265"];
	"78" -- "209" [ExportFraction="0.165", ImportExportFraction="0.298", ImportFraction="0.133", len="0.56705", normalized_weight="0.18999", weight="0.298"];
	"79" -- "161" [ExportFraction="0.269", ImportExportFraction="0.322", ImportFraction="0.053", len="0.54552", normalized_weight="0.20529", weight="0.322"];
	"81" -- "170" [ExportFraction="0.208", ImportExportFraction="0.408", ImportFraction="0.2", len="0.47612", normalized_weight="0.26012", weight="0.408"];
	"81" -- "179" [ExportFraction="0.139", ImportExportFraction="0.289", ImportFraction="0.15", len="0.57541", normalized_weight="0.18425", weight="0.289"];
	"81" -- "208" [ExportFraction="0.093", ImportExportFraction="0.251", ImportFraction="0.158", len="0.61257", normalized_weight="0.16002", weight="0.251"];
	"83" -- "125" [ImportExportFraction="0.362", ImportFraction="0.362", len="0.51186", normalized_weight="0.23079", weight="0.362"];
	"83" -- "136" [ExportFraction="0.637", ImportExportFraction="0.637", len="0.33208", normalized_weight="0.40611", weight="0.637"];
	"85" -- "106" [ExportFraction="0.132", ImportExportFraction="0.263", ImportFraction="0.131", len="0.60049", normalized_weight="0.16767", weight="0.263"];
	"87" -- "106" [ExportFraction="0.74", ImportExportFraction="1.38", ImportFraction="0.64", len="0.04972", normalized_weight="0.87980", weight="1.38"];
	"89" -- "107" [ExportFraction="0.092", ImportExportFraction="0.254", ImportFraction="0.162", len="0.60952", normalized_weight="0.16194", weight="0.254"];
	"89" -- "108" [ExportFraction="0.455", ImportExportFraction="0.75", ImportFraction="0.295", len="0.27545", normalized_weight="0.47815", weight="0.75"];
	"91" -- "118" [ExportFraction="0.839", ImportExportFraction="0.839", len="0.23552", normalized_weight="0.53490", weight="0.839"];
	"93" -- "106" [ExportFraction="0.234", ImportExportFraction="0.234", len="0.63029", normalized_weight="0.14918", weight="0.234"];
	"94" -- "106" [ExportFraction="0.188", ImportExportFraction="0.315", ImportFraction="0.127", len="0.55169", normalized_weight="0.20082", weight="0.315"];
	"94" -- "176" [ExportFraction="0.819", ImportExportFraction="0.819", len="0.24418", normalized_weight="0.52214", weight="0.819"];
	"94" -- "191" [ExportFraction="0.34", ImportExportFraction="0.405", ImportFraction="0.065", len="0.47836", normalized_weight="0.25820", weight="0.405"];
	"94" -- "203" [ExportFraction="0.58", ImportExportFraction="1.095", ImportFraction="0.515", len="0.13769", normalized_weight="0.69811", weight="1.095"];
	"94" -- "204" [ExportFraction="0.361", ImportExportFraction="0.417", ImportFraction="0.056", len="0.46946", normalized_weight="0.26585", weight="0.417"];
	"95" -- "202" [ExportFraction="0.223", ImportExportFraction="0.223", len="0.64215", normalized_weight="0.14217", weight="0.223"];
	"96" -- "170" [ExportFraction="0.151", ImportExportFraction="0.378", ImportFraction="0.227", len="0.49909", normalized_weight="0.24099", weight="0.378"];
	"97" -- "101" [ImportExportFraction="0.317", ImportFraction="0.317", len="0.54992", normalized_weight="0.20210", weight="0.317"];
	"98" -- "202" [ExportFraction="0.148", ImportExportFraction="0.26", ImportFraction="0.112", len="0.60348", normalized_weight="0.16576", weight="0.26"];
	"100" -- "122" [ExportFraction="0.193", ImportExportFraction="0.354", ImportFraction="0.161", len="0.51839", normalized_weight="0.22569", weight="0.354"];
	"102" -- "202" [ExportFraction="0.32", ImportExportFraction="0.414", ImportFraction="0.094", len="0.47167", normalized_weight="0.26394", weight="0.414"];
	"103" -- "188" [ExportFraction="0.126", ImportExportFraction="0.299", ImportFraction="0.173", len="0.56613", normalized_weight="0.19062", weight="0.299"];
	"104" -- "114" [ExportFraction="0.245", ImportExportFraction="0.245", len="0.61875", normalized_weight="0.15620", weight="0.245"];
	"106" -- "111" [ExportFraction="0.45", ImportExportFraction="1.07", ImportFraction="0.62", len="0.14633", normalized_weight="0.68217", weight="1.07"];
	"106" -- "126" [ExportFraction="0.319", ImportExportFraction="0.459", ImportFraction="0.14", len="0.43965", normalized_weight="0.29263", weight="0.459"];
	"106" -- "132" [ExportFraction="0.193", ImportExportFraction="0.269", ImportFraction="0.076", len="0.59457", normalized_weight="0.17150", weight="0.269"];
	"106" -- "143" [ExportFraction="0.62", ImportExportFraction="1.25", ImportFraction="0.63", len="0.08765", normalized_weight="0.79692", weight="1.25"];
	"106" -- "151" [ExportFraction="0.091", ImportExportFraction="0.372", ImportFraction="0.281", len="0.50383", normalized_weight="0.23716", weight="0.372"];
	"106" -- "157" [ExportFraction="0.089", ImportExportFraction="0.317", ImportFraction="0.228", len="0.54992", normalized_weight="0.20210", weight="0.317"];
	"106" -- "169" [ExportFraction="0.091", ImportExportFraction="0.257", ImportFraction="0.166", len="0.60649", normalized_weight="0.16385", weight="0.257"];
	"106" -- "172" [ExportFraction="0.273", ImportExportFraction="0.453", ImportFraction="0.18", len="0.44379", normalized_weight="0.28881", weight="0.453"];
	"106" -- "173" [ExportFraction="0.6", ImportExportFraction="1.23", ImportFraction="0.63", len="0.0938", normalized_weight="0.78417", weight="1.23"];
	"106" -- "182" [ExportFraction="0.43", ImportExportFraction="0.92", ImportFraction="0.49", len="0.20212", normalized_weight="0.58654", weight="0.92"];
	"106" -- "184" [ImportExportFraction="0.97", ImportFraction="0.97", len="0.18272", normalized_weight="0.61841", weight="0.97"];
	"106" -- "203" [ExportFraction="0.34", ImportExportFraction="0.563", ImportFraction="0.223", len="0.37362", normalized_weight="0.35893", weight="0.563"];
	"107" -- "198" [ExportFraction="0.076", ImportExportFraction="0.237", ImportFraction="0.161", len="0.62711", normalized_weight="0.15110", weight="0.237"];
	"108" -- "198" [ExportFraction="0.148", ImportExportFraction="0.385", ImportFraction="0.237", len="0.49362", normalized_weight="0.24545", weight="0.385"];
	"110" -- "160" [ExportFraction="0.172", ImportExportFraction="0.244", ImportFraction="0.072", len="0.61978", normalized_weight="0.15556", weight="0.244"];
	"111" -- "173" [ExportFraction="0.28", ImportExportFraction="0.28", len="0.58393", normalized_weight="0.17851", weight="0.28"];
	"112" -- "136" [ExportFraction="0.597", ImportExportFraction="1.553", ImportFraction="0.956", len="0.00389", normalized_weight="0.99010", weight="1.553"];
	"113" -- "119" [ImportExportFraction="0.271", ImportFraction="0.271", len="0.59262", normalized_weight="0.17277", weight="0.271"];
	"113" -- "125" [ExportFraction="0.075", ImportExportFraction="0.405", ImportFraction="0.33", len="0.47836", normalized_weight="0.25820", weight="0.405"];
	"115" -- "116" [ExportFraction="0.254", ImportExportFraction="0.254", len="0.60952", normalized_weight="0.16194", weight="0.254"];
	"115" -- "122" [ExportFraction="0.13", ImportExportFraction="0.256", ImportFraction="0.126", len="0.6075", normalized_weight="0.16321", weight="0.256"];
	"116" -- "122" [ExportFraction="0.107", ImportExportFraction="0.224", ImportFraction="0.117", len="0.64106", normalized_weight="0.14281", weight="0.224"];
	"116" -- "158" [ExportFraction="0.091", ImportExportFraction="0.274", ImportFraction="0.183", len="0.5897", normalized_weight="0.17469", weight="0.274"];
	"118" -- "129" [ExportFraction="0.341", ImportExportFraction="0.341", len="0.52921", normalized_weight="0.21740", weight="0.341"];
	"119" -- "125" [ExportFraction="0.106", ImportExportFraction="0.321", ImportFraction="0.215", len="0.5464", normalized_weight="0.20465", weight="0.321"];
	"119" -- "128" [ExportFraction="0.055", ImportExportFraction="0.386", ImportFraction="0.331", len="0.49284", normalized_weight="0.24609", weight="0.386"];
	"119" -- "205" [ImportExportFraction="0.295", ImportFraction="0.295", len="0.56982", normalized_weight="0.18807", weight="0.295"];
	"121" -- "205" [ExportFraction="0.129", ImportExportFraction="0.26", ImportFraction="0.131", len="0.60348", normalized_weight="0.16576", weight="0.26"];
	"122" -- "134" [ExportFraction="0.406", ImportExportFraction="0.596", ImportFraction="0.19", len="0.3546", normalized_weight="0.37997", weight="0.596"];
	"122" -- "145" [ExportFraction="0.26", ImportExportFraction="0.26", len="0.60348", normalized_weight="0.16576", weight="0.26"];
	"122" -- "149" [ExportFraction="0.19", ImportExportFraction="0.358", ImportFraction="0.168", len="0.51511", normalized_weight="0.22824", weight="0.358"];
	"122" -- "158" [ExportFraction="0.61", ImportExportFraction="0.94", ImportFraction="0.33", len="0.19426", normalized_weight="0.59929", weight="0.94"];
	"122" -- "179" [ExportFraction="0.172", ImportExportFraction="0.3", ImportFraction="0.128", len="0.56521", normalized_weight="0.19126", weight="0.3"];
	"122" -- "184" [ExportFraction="0.4", ImportExportFraction="0.4", len="0.48213", normalized_weight="0.25502", weight="0.4"];
	"122" -- "209" [ExportFraction="0.125", ImportExportFraction="0.296", ImportFraction="0.171", len="0.56889", normalized_weight="0.18871", weight="0.296"];
	"124" -- "170" [ExportFraction="0.248", ImportExportFraction="0.509", ImportFraction="0.261", len="0.40665", normalized_weight="0.32451", weight="0.509"];
	"125" -- "146" [ExportFraction="0.34", ImportExportFraction="0.4", ImportFraction="0.06", len="0.48213", normalized_weight="0.25502", weight="0.4"];
	"125" -- "159" [ExportFraction="0.22", ImportExportFraction="0.427", ImportFraction="0.207", len="0.46217", normalized_weight="0.27223", weight="0.427"];
	"125" -- "202" [ExportFraction="0.143", ImportExportFraction="0.288", ImportFraction="0.145", len="0.57634", normalized_weight="0.18361", weight="0.288"];
	"128" -- "159" [ExportFraction="0.095", ImportExportFraction="0.375", ImportFraction="0.28", len="0.50146", normalized_weight="0.23908", weight="0.375"];
	"129" -- "136" [ExportFraction="0.204", ImportExportFraction="0.686", ImportFraction="0.482", len="0.30661", normalized_weight="0.43735", weight="0.686"];
	"130" -- "202" [ExportFraction="0.232", ImportExportFraction="0.232", len="0.63242", normalized_weight="0.14791", weight="0.232"];
	"136" -- "166" [ExportFraction="0.165", ImportExportFraction="0.533", ImportFraction="0.368", len="0.39166", normalized_weight="0.33981", weight="0.533"];
	"136" -- "180" [ExportFraction="0.334", ImportExportFraction="1.186", ImportFraction="0.852", len="0.10762", normalized_weight="0.75612", weight="1.186"];
	"138" -- "192" [ExportFraction="0.213", ImportExportFraction="0.27", ImportFraction="0.057", len="0.59359", normalized_weight="0.17214", weight="0.27"];
	"138" -- "206" [ExportFraction="0.243", ImportExportFraction="0.243", len="0.62082", normalized_weight="0.15492", weight="0.243"];
	"141" -- "202" [ExportFraction="0.232", ImportExportFraction="0.438", ImportFraction="0.206", len="0.4543", normalized_weight="0.27924", weight="0.438"];
	"144" -- "170" [ExportFraction="0.117", ImportExportFraction="0.463", ImportFraction="0.346", len="0.43692", normalized_weight="0.29518", weight="0.463"];
	"144" -- "202" [ExportFraction="0.152", ImportExportFraction="0.373", ImportFraction="0.221", len="0.50304", normalized_weight="0.23780", weight="0.373"];
	"146" -- "159" [ExportFraction="0.25", ImportExportFraction="0.86", ImportFraction="0.61", len="0.22661", normalized_weight="0.54828", weight="0.86"];
	"155" -- "202" [ImportExportFraction="0.361", ImportFraction="0.361", len="0.51267", normalized_weight="0.23015", weight="0.361"];
	"156" -- "175" [ExportFraction="0.126", ImportExportFraction="0.267", ImportFraction="0.141", len="0.59653", normalized_weight="0.17022", weight="0.267"];
	"160" -- "202" [ExportFraction="0.14", ImportExportFraction="0.282", ImportFraction="0.142", len="0.58202", normalized_weight="0.17979", weight="0.282"];
	"161" -- "205" [ImportExportFraction="0.227", ImportFraction="0.227", len="0.6378", normalized_weight="0.14472", weight="0.227"];
	"162" -- "200" [ExportFraction="0.297", ImportExportFraction="0.297", len="0.56797", normalized_weight="0.18935", weight="0.297"];
	"169" -- "202" [ExportFraction="0.331", ImportExportFraction="0.415", ImportFraction="0.084", len="0.47093", normalized_weight="0.26458", weight="0.415"];
	"170" -- "193" [ExportFraction="0.087", ImportExportFraction="0.299", ImportFraction="0.212", len="0.56613", normalized_weight="0.19062", weight="0.299"];
	"170" -- "208" [ExportFraction="0.218", ImportExportFraction="0.471", ImportFraction="0.253", len="0.4315", normalized_weight="0.30028", weight="0.471"];
	"172" -- "175" [ExportFraction="0.378", ImportExportFraction="0.378", len="0.49909", normalized_weight="0.24099", weight="0.378"];
	"172" -- "182" [ExportFraction="0.36", ImportExportFraction="0.36", len="0.51348", normalized_weight="0.22951", weight="0.36"];
	"174" -- "190" [ImportExportFraction="0.262", ImportFraction="0.262", len="0.60148", normalized_weight="0.16704", weight="0.262"];
	"174" -- "201" [ExportFraction="0.132", ImportExportFraction="0.229", ImportFraction="0.097", len="0.63564", normalized_weight="0.14600", weight="0.229"];
	"174" -- "202" [ExportFraction="0.45", ImportExportFraction="0.9", ImportFraction="0.45", len="0.21013", normalized_weight="0.57379", weight="0.9"];
	"178" -- "204" [ExportFraction="0.285", ImportExportFraction="0.688", ImportFraction="0.403", len="0.3056", normalized_weight="0.43863", weight="0.688"];
	"178" -- "206" [ExportFraction="0.043", ImportExportFraction="0.652", ImportFraction="0.609", len="0.32412", normalized_weight="0.41568", weight="0.652"];
	"190" -- "202" [ImportExportFraction="0.245", ImportFraction="0.245", len="0.61875", normalized_weight="0.15620", weight="0.245"];
	"201" -- "202" [ExportFraction="0.157", ImportExportFraction="0.579", ImportFraction="0.422", len="0.36429", normalized_weight="0.36914", weight="0.579"];
}
